headline,source,label
what the bleep happened this week crime feed,Investigation Discovery,clickbait
the new way cops have to catch you texting and driving and maybe some other things too video,American News X,clickbait
the iphone 7 launch what you need to know,USA Today,clickbait
why wandering minds can be less caring plus how to cultivate compassion,Conscious Life News,clickbait
video of this black democrat is liberals worst nightmare and shes going viral,Red Flag News,clickbait
great picture of a muslim dad and his daughters. wait what theyre not his daughters,Eagle Rising,clickbait
how american idol has changed over 15 seasons,Newsday,clickbait
man claims his peeing gal pal was blown off manhattan rooftop,New York Post,clickbait
they asked their son to say the prayer... what happens next is priceless,American Freedom Fighters,clickbait
katy perry orlando bloom pack on the pda at coachella 2016,E!,clickbait
pitching legend curt schilling tweets about islam then fired right after,Western Journalism,non-clickbait
rich senator elizabeth warren says all money from economic recovery going to the rich,TheSpoof,non-clickbait
muslim latina and a woman triply discriminated,Univision News,non-clickbait
dr. mercola mediterranean diet linked to healthier brain,Conscious Life News,non-clickbait
outgoing la county coroner describes department in turmoil its nuts,Los Angeles Daily News,non-clickbait
gop media twisting silly rumors into fact omg obama is giving nukes to iran,Addicting Info,non-clickbait
hillary clintons pneumonia jolts the presidential race,Wall Street Journal,non-clickbait
prince cant die,MTV,non-clickbait
first u.s. smart gun sale will trigger ban on traditional gun sales in nj,The D.C. Clothesline,non-clickbait
what the drama inside jeb bushs campaign tells us,NBC,non-clickbait